de/doszhan/states/state/EmployeeSecurityEvent.class
de/doszhan/states/service/EmployeeService.class
de/doszhan/states/state/EmployeePermitEvent.class
de/doszhan/states/service/EmployeeStatusChangeService$1.class
de/doszhan/states/StatesApplication.class
de/doszhan/states/state/EmployeeSecurityState.class
de/doszhan/states/model/Employee.class
de/doszhan/states/state/EmployeePermitState.class
de/doszhan/states/controller/EmployeeController.class
de/doszhan/states/repository/EmployeeRepository.class
de/doszhan/states/service/EmployeeStatusChangeService.class
de/doszhan/states/state/EmployeeMainState.class
de/doszhan/states/state/EmployeeMainEvent.class
